{
    "testPlanName": "docker",
    "default_timeout": "30m",
    "default_spec": "default",
    "tests": [
        {
            "testName": "Benchmark.Dhrystone",
            "spec": "100M"
        },
        {
            "testName": "Benchmark.dbench",
            "spec": "testdir"
        },
        {
            "testName": "Benchmark.hackbench"
        },
        {
            "testName": "Benchmark.Whetstone"
        },
        {
            "testName": "Benchmark.linpack"
        },
        {
            "testName": "Benchmark.bonnie",
            "spec": "noroot"
        },
        {
            "testName": "Benchmark.ffsb"
        },
        {
            "testName": "Benchmark.fio"
        },
        {
            "testName": "Benchmark.IOzone",
            "spec": "nopread"
        },
        {
            "testName": "Benchmark.tiobench",
            "timeout": "30m"
        },
        {
            "testName": "Benchmark.netperf",
            "spec": "docker",
            "timeout": "30m"
        },
        {
            "testName": "Benchmark.Java"
        },
        {
            "testName": "Functional.kernel_build",
            "timeout": "120m"
        },
        {
            "testName": "Functional.LTP",
            "spec": "docker",
            "timeout": "120m"
        },
        {
            "testName": "Functional.expat"
        },
        {
            "testName": "Functional.synctest"
        },
        {
            "testName": "Functional.aiostress"
        },
        {
            "testName": "Functional.bzip2"
        },
        {
            "testName": "Functional.crashme"
        },
        {
            "testName": "Functional.glib",
            "timeout": "30m"
        },
        {
            "testName": "Functional.ipv6connect"
        },
        {
            "testName": "Functional.ft2demos"
        },
        {
            "testName": "Functional.linus_stress",
            "timeout": "30m"
        },
        {
            "testName": "Functional.rmaptest",
            "timeout": "15m"
        },
        {
            "testName": "Functional.stress"
        },
        {
            "testName": "Functional.bc"
        },
        {
            "testName": "Functional.bc",
            "spec": "bc-by2"
        },
        {
            "testName": "Functional.zlib"
        },
        {
            "testName": "Functional.hello_world"
        },
        {
            "testName": "Functional.jpeg"
        },
        {
            "testName": "Functional.netperf",
            "spec": "docker",
            "timeout": "25m"
        }
    ]
}
