{
    "testPlanName": "docker",
    "tests": [
        {
            "testName": "Functional.fuego_board_check",
            "spec": "default",
            "timeout": "3m"
        },
        {
            "testName": "Functional.fuego_transport",
            "spec": "default",
            "timeout": "10m"
        },
        {
            "testName": "Functional.fuego_test_phases",
            "spec": "default",
            "timeout": "3m"
        },
        {
            "testName": "Functional.hello_world",
            "spec": "default",
            "timeout": "3m"
        },
        {
            "testName": "Functional.hello_world",
            "spec": "hello-fail",
            "timeout": "3m"
        },
        {
            "testName": "Functional.hello_world",
            "spec": "hello-random",
            "timeout": "3m"
        },
        {
            "testName": "Functional.bc",
            "spec": "default",
            "timeout": "3m"
        },
        {
            "testName": "Benchmark.fuego_check_plots",
            "spec": "default",
            "timeout": "3m",
            "extralinks": {"plot": "plot.png"}
        },
        {
            "testName": "Benchmark.Dhrystone",
            "spec": "100M",
            "timeout": "3m",
            "extralinks": {"plot": "plot.png"}
        }
    ]
}
