{
    "schema_version":"1.0",
    "criteria":[
        {
            "tguid":"default.Hackbench.Time",
            "reference":{
                "value":100,
                "operator":"le"
            }
        },
        {
            "tguid":"default.Hackbench",
            "min_pass":1
        }
    ]
}
