{
    "testName": "Benchmark.hackbench",
    "specs": {
        "default": {
            "PARAMS": " "
        },
        "pipes": {
            "PARAMS": "--pipe"
        },
        "threads": {
            "PARAMS": "--threads"
        },
        "stress": {
            "PARAMS": "-s 1024 -l 2000 -g 100 -P --pipe"
        },
        "latest": {
            "PER_JOB_BUILD": "true",
            "gitrepo": "https://git.kernel.org/pub/scm/utils/rt-tests/rt-tests.git",
            "gitref": "unstable/devel/v1.1.1",
            "PARAMS": " "
        }
    }
}
