{
    "test_sets":[
        {
            "name":"Read",
            "test_cases":[
                {
                    "name":"Seq",
                    "measurements":[
                        {
                            "name":"speed",
                            "unit":"KB/s"
                        }
                    ]
                },
                {
                    "name":"Random",
                    "measurements":[
                        {
                            "name":"speed",
                            "unit":"KB/s"
                        }
                    ]
                }
            ]
        },
        {
            "name":"Write",
            "test_cases":[
                {
                    "name":"Seq",
                    "measurements":[
                        {
                            "name":"speed",
                            "unit":"KB/s"
                        }
                    ]
                },
                {
                    "name":"Random",
                    "measurements":[
                        {
                            "name":"speed",
                            "unit":"KB/s"
                        }
                    ]
                }
            ]
        },
        {
            "name":"File",
            "test_cases":[
                {
                    "name":"Read",
                    "measurements":[
                        {
                            "name":"speed",
                            "unit":"KB/s"
                        }
                    ]
                },
                {
                    "name":"Write",
                    "measurements":[
                        {
                            "name":"speed",
                            "unit":"KB/s"
                        }
                    ]
                }
            ]
        }
    ]
}
