{
    "testName": "Functional.fuego_abort",
    "specs": {
        "default": {
            "WAIT_FOR_USER_ABORT": "1",
            "DO_ABORT": "1"
	},
        "no_abort": {
            "WAIT_FOR_USER_ABORT": "0",
            "DO_ABORT": "0"
        }
    }
}

