{
    "test_sets":[
        {
            "name":"default",
            "test_cases":[
                {
                    "name":"dbench",
                    "measurements":[
                        {
                            "name":"Throughput",
                            "unit":"MB/s"
                        }
                    ]
                }
            ]
        }
    ]
}
