{
    "test_sets":[
        {
            "name":"default",
            "test_cases":[
                {
                    "name":"test1"
                },
                {
                    "name":"test2"
                },
                {
                    "name":"test3"
                },
                {
                    "name":"test4"
                },
                {
                    "name":"test5"
                },
                {
                    "name":"test6"
                },
                {
                    "name":"test7"
                },
                {
                    "name":"test8"
                },
                {
                    "name":"test9"
                },
                {
                    "name":"test10"
                },
                {
                    "name":"test11"
                },
                {
                    "name":"test12"
                }
            ]
        }
    ]
}
